Account No,Date,Val. Date,Transaction Code,Description,Description,Reference No.,Debit,Credit
1.04E+12,28/02/18,28/02/18,142,Auto Transfer  ,DARI  1020006510249 KE  1040004353608    ,,0,"1,700,000.00"
1.04E+12,28/02/18,28/02/18,6858,Transfer  DARI MOH. KHABIB,beli reksadana                           ,,0,"2,000,000.00"
1.04E+12,28/02/18,28/02/18,4610,Transfer RTGS  REKSA DANA SUCORINVEST EQUITY FUND,TRANSFER DANA                            ,,"1,775,450,000.00",0
1.04E+12,28/02/18,28/02/18,7820,MCM InhouseTrf  DARI SUCOR SEKURITAS,SEF 28/02/2018                           ,                   ,0,"3,700,000.00"
1.04E+12,28/02/18,28/02/18,4939,"Inward RTGS  DAPEN WIKA PPIPPT. BANK RAKYAT INDONESIA (PERSERO), TBK",PEMBELIAN REKSADANA SUCIRINVEST          ,,0,"500,000,000.00"
1.04E+12,28/02/18,28/02/18,453,Biaya Adm  ,                                         ,,"25,000.00",0
1.04E+12,28/02/18,28/02/18,160,Bunga  ,                                         ,,0,"3,012,567.34"
1.04E+12,28/02/18,28/02/18,198,Pajak  ,                                         ,,"602,513.47",0
1.04E+12,28/02/18,28/02/18,404,Biaya Meterai  ,                                         ,,"6,000.00",0
1.04E+12,1/3/2018,1/3/2018,6542,ATMB trf Credt  00011234  /0002747373/ATB-0000000000002,                                         ,,0,"2,000,000.00"
1.04E+12,1/3/2018,1/3/2018,6858,Transfer  DARI IHWAN ULUL FIRDAUS,                                         ,,0,"50,000,000.00"
1.04E+12,1/3/2018,1/3/2018,6858,Transfer  DARI BENI KUSWARA,                                         ,,0,"1,000,000.00"
1.04E+12,1/3/2018,1/3/2018,6544,  1040004353608       5221842059190881,                                         ,,0,"261,350.00"
1.04E+12,1/3/2018,1/3/2018,6609,  1040004353608       4617003702774382,9.00003E+12,,0,"300,000.00"
1.04E+12,1/3/2018,1/3/2018,7820,MCM InhouseTrf  DARI SUCOR SEKURITAS,SEF  01/03/2018                          ,                   ,0,"5,050,000,000.00"
1.04E+12,1/3/2018,1/3/2018,7820,MCM InhouseTrf  DARI YUSTINA BALIS NANING PRAMITA,                                         ,                   ,0,"3,000,000.00"
